<svg width="571" height="426" viewBox="0 0 571 426" fill="none" xmlns="http://www.w3.org/2000/svg">
<g filter="url(#filter0_d)">
<rect x="24" y="15.9995" width="419" height="270" rx="24" fill="white"/>
<path fill-rule="evenodd" clip-rule="evenodd" d="M72.0433 246.51C72.2403 246.875 72.2731 247.174 72.1418 247.406C71.9777 247.672 71.748 247.804 71.4526 247.804H50.8758C50.5805 247.804 50.3508 247.672 50.1867 247.406C50.0554 247.174 50.0882 246.875 50.2851 246.51L60.4751 229.141C60.6392 228.843 60.8689 228.693 61.1642 228.693C61.4596 228.693 61.6893 228.843 61.8534 229.141L72.0433 246.51ZM62.4878 245.416V243.027H59.9674V245.416H62.4878ZM62.4878 241.434V234.267H59.9674V241.434H62.4878Z" fill="#F7B422"/>
<path fill-rule="evenodd" clip-rule="evenodd" d="M72.0433 186.943C72.2403 187.308 72.2731 187.607 72.1418 187.839C71.9777 188.104 71.748 188.237 71.4526 188.237H50.8758C50.5805 188.237 50.3508 188.104 50.1867 187.839C50.0554 187.607 50.0882 187.308 50.2851 186.943L60.4751 169.574C60.6392 169.275 60.8689 169.126 61.1642 169.126C61.4596 169.126 61.6893 169.275 61.8534 169.574L72.0433 186.943ZM62.4878 185.848V183.459H59.9674V185.848H62.4878ZM62.4878 181.867V174.7H59.9674V181.867H62.4878Z" fill="#E34C4C"/>
<path fill-rule="evenodd" clip-rule="evenodd" d="M71.9102 59.7739C71.9427 62.7964 70.9126 65.38 68.8201 67.525C66.7275 69.67 64.1726 70.775 61.1554 70.84C58.1382 70.8725 55.5591 69.8406 53.4178 67.7444C51.2766 65.6482 50.1735 63.0889 50.1087 60.0664C50.0762 57.0439 51.1063 54.4602 53.1988 52.3152C55.2914 50.1702 57.8463 49.0653 60.8635 49.0003C63.8807 48.9678 66.4598 49.9996 68.6011 52.0958C70.7423 54.1921 71.8454 56.7514 71.9102 59.7739ZM61.5358 53.9331C61.2803 53.6771 60.9538 53.5491 60.5564 53.5491C60.1589 53.5491 59.8325 53.6771 59.577 53.9331C59.3214 54.189 59.1937 54.5161 59.1937 54.9142C59.1937 55.3124 59.3214 55.6394 59.577 55.8954C59.8325 56.1513 60.1589 56.2793 60.5564 56.2793C60.9538 56.2793 61.2803 56.1513 61.5358 55.8954C61.7913 55.6394 61.9191 55.3124 61.9191 54.9142C61.9191 54.5161 61.7913 54.189 61.5358 53.9331ZM62.8275 66.2905V65.7435H61.9191V57.19H59.1937V57.7868H60.1022V65.7435H59.1937V66.2905H62.8275Z" fill="#0099FA"/>
<path d="M58.7212 124.947L53.2705 119.487L54.7967 117.958L58.7212 121.89L67.0064 113.59L68.5326 115.119L58.7212 124.947ZM60.9015 108.566C54.8512 108.566 50 113.481 50 119.487C50 125.493 54.8512 130.408 60.9015 130.408C66.8974 130.408 71.8031 125.493 71.8031 119.487C71.8031 113.481 66.8974 108.566 60.9015 108.566Z" fill="#56BD5B"/>
<rect opacity="0.5" x="84" y="44.9995" width="84" height="11" rx="4" fill="#B3B3B3"/>
<rect opacity="0.5" x="217" y="44.9995" width="132" height="11" rx="4" fill="#B3B3B3"/>
<rect opacity="0.5" x="361" y="44.9995" width="51" height="11" rx="4" fill="#B3B3B3"/>
<rect opacity="0.5" x="84" y="63.9995" width="159" height="11" rx="4" fill="#B3B3B3"/>
<rect opacity="0.5" x="255" y="63.9995" width="88" height="11" rx="4" fill="#B3B3B3"/>
<rect opacity="0.5" x="180" y="44.9995" width="25" height="11" rx="4" fill="#B3B3B3"/>
<rect opacity="0.5" x="84" y="104" width="84" height="11" rx="4" fill="#B3B3B3"/>
<rect opacity="0.5" x="217" y="104" width="132" height="11" rx="4" fill="#B3B3B3"/>
<rect opacity="0.5" x="361" y="104" width="51" height="11" rx="4" fill="#B3B3B3"/>
<rect opacity="0.5" x="84" y="123" width="159" height="11" rx="4" fill="#B3B3B3"/>
<rect opacity="0.5" x="255" y="123" width="88" height="11" rx="4" fill="#B3B3B3"/>
<rect opacity="0.5" x="180" y="104" width="25" height="11" rx="4" fill="#B3B3B3"/>
<rect opacity="0.5" x="84" y="163" width="84" height="11" rx="4" fill="#B3B3B3"/>
<rect opacity="0.5" x="217" y="163" width="132" height="11" rx="4" fill="#B3B3B3"/>
<rect opacity="0.5" x="361" y="163" width="51" height="11" rx="4" fill="#B3B3B3"/>
<rect opacity="0.5" x="84" y="182" width="159" height="11" rx="4" fill="#B3B3B3"/>
<rect opacity="0.5" x="255" y="182" width="88" height="11" rx="4" fill="#B3B3B3"/>
<rect opacity="0.5" x="180" y="163" width="25" height="11" rx="4" fill="#B3B3B3"/>
<rect opacity="0.5" x="84" y="222" width="84" height="11" rx="4" fill="#B3B3B3"/>
<rect opacity="0.5" x="217" y="222" width="132" height="11" rx="4" fill="#B3B3B3"/>
<rect opacity="0.5" x="361" y="222" width="51" height="11" rx="4" fill="#B3B3B3"/>
<rect opacity="0.5" x="84" y="241" width="159" height="11" rx="4" fill="#B3B3B3"/>
<rect opacity="0.5" x="255" y="241" width="88" height="11" rx="4" fill="#B3B3B3"/>
<rect opacity="0.5" x="180" y="222" width="25" height="11" rx="4" fill="#B3B3B3"/>
</g>
<g filter="url(#filter1_d)">
<rect x="227" y="119" width="330" height="288.558" rx="13.6233" fill="white"/>
</g>
<rect opacity="0.5" x="359.768" y="204.186" width="64.4651" height="8.44186" rx="4" fill="#4B4B4B"/>
<rect opacity="0.5" x="359.768" y="300.884" width="64.4651" height="8.44186" rx="4" fill="#4B4B4B"/>
<rect opacity="0.5" x="265.372" y="165.814" width="64.4651" height="8.44186" rx="4" fill="#B3B3B3"/>
<rect x="265.372" y="324.675" width="64.4651" height="8.44186" rx="4" fill="#F7B422"/>
<rect opacity="0.5" x="277.651" y="348.465" width="39.907" height="8.44186" rx="4" fill="#B3B3B3"/>
<rect opacity="0.5" x="359.768" y="165.814" width="64.4651" height="8.44186" rx="4" fill="#B3B3B3"/>
<rect x="359.768" y="324.675" width="64.4651" height="8.44186" rx="4" fill="#0099FA"/>
<rect opacity="0.5" x="372.046" y="348.465" width="39.907" height="8.44186" rx="4" fill="#B3B3B3"/>
<path d="M359.728 258.143C361.09 252.048 364.231 246.281 369.118 241.682C374.005 237.084 379.952 234.299 386.119 233.309C387.414 233.101 388.634 233.983 388.842 235.279C389.05 236.575 388.168 237.794 386.872 238.002C381.615 238.846 376.548 241.217 372.375 245.144C368.202 249.071 365.528 253.984 364.366 259.18C364.08 260.461 362.809 261.267 361.529 260.981C360.248 260.695 359.441 259.424 359.728 258.143Z" fill="#1A1AFF"/>
<path d="M388.621 235.355C388.609 234.042 389.663 232.968 390.976 232.956C398.311 232.888 405.715 235.306 411.817 240.337C417.92 245.368 421.706 252.174 423.039 259.387C423.278 260.678 422.425 261.918 421.134 262.156C419.844 262.395 418.604 261.542 418.365 260.251C417.228 254.096 414.002 248.298 408.794 244.005C403.586 239.711 397.279 237.651 391.02 237.709C389.707 237.721 388.634 236.667 388.621 235.355Z" fill="#9B9BFF"/>
<path d="M383.743 236.169C383.515 234.877 384.377 233.643 385.67 233.415C392.893 232.137 400.594 233.3 407.443 237.255C414.293 241.209 419.15 247.297 421.656 254.191C422.104 255.425 421.467 256.788 420.234 257.237C419 257.685 417.637 257.048 417.188 255.815C415.051 249.932 410.912 244.746 405.067 241.371C399.222 237.996 392.661 237.005 386.497 238.095C385.205 238.324 383.972 237.461 383.743 236.169Z" fill="#D3D3FF"/>
<rect opacity="0.5" x="382.023" y="244.093" width="19.9535" height="8.44186" rx="4" fill="#B3B3B3"/>
<rect opacity="0.5" x="376.651" y="257.14" width="30.6977" height="8.44186" rx="4" fill="#B3B3B3"/>
<path d="M454.123 258.143C455.485 252.048 458.626 246.281 463.513 241.682C468.4 237.084 474.348 234.299 480.514 233.309C481.81 233.101 483.029 233.983 483.237 235.279C483.445 236.575 482.563 237.794 481.267 238.002C476.01 238.846 470.943 241.217 466.77 245.144C462.597 249.071 459.923 253.984 458.762 259.18C458.475 260.461 457.205 261.267 455.924 260.981C454.643 260.695 453.837 259.424 454.123 258.143Z" fill="#1A1AFF"/>
<path d="M483.017 235.355C483.005 234.042 484.059 232.968 485.371 232.956C492.706 232.888 500.11 235.306 506.213 240.337C512.315 245.368 516.101 252.174 517.435 259.387C517.673 260.678 516.82 261.918 515.529 262.156C514.239 262.395 512.999 261.542 512.761 260.251C511.623 254.096 508.397 248.298 503.189 244.005C497.981 239.711 491.674 237.651 485.415 237.709C484.103 237.721 483.029 236.667 483.017 235.355Z" fill="#9B9BFF"/>
<path d="M478.138 236.169C477.91 234.877 478.772 233.643 480.065 233.415C487.288 232.137 494.989 233.3 501.838 237.255C508.688 241.209 513.545 247.297 516.051 254.191C516.499 255.425 515.862 256.788 514.629 257.237C513.395 257.685 512.032 257.048 511.583 255.815C509.446 249.932 505.307 244.746 499.462 241.371C493.617 237.996 487.056 237.005 480.892 238.095C479.6 238.324 478.367 237.461 478.138 236.169Z" fill="#D3D3FF"/>
<rect opacity="0.5" x="476.419" y="244.093" width="19.9535" height="8.44186" rx="4" fill="#B3B3B3"/>
<rect opacity="0.5" x="471.046" y="257.14" width="30.6977" height="8.44186" rx="4" fill="#B3B3B3"/>
<path d="M265.332 258.143C266.695 252.048 269.835 246.281 274.723 241.682C279.61 237.084 285.557 234.299 291.723 233.309C293.019 233.101 294.238 233.983 294.446 235.279C294.654 236.575 293.772 237.794 292.476 238.002C287.22 238.846 282.153 241.217 277.98 245.144C273.807 249.071 271.132 253.984 269.971 259.18C269.685 260.461 268.414 261.267 267.133 260.981C265.852 260.695 265.046 259.424 265.332 258.143Z" fill="#1A1AFF"/>
<path d="M294.226 235.355C294.214 234.042 295.268 232.968 296.581 232.956C303.916 232.888 311.32 235.306 317.422 240.337C323.525 245.368 327.311 252.174 328.644 259.387C328.883 260.678 328.03 261.918 326.739 262.156C325.448 262.395 324.209 261.542 323.97 260.251C322.833 254.096 319.607 248.298 314.399 244.005C309.191 239.711 302.883 237.651 296.625 237.709C295.312 237.721 294.238 236.667 294.226 235.355Z" fill="#9B9BFF"/>
<path d="M289.348 236.169C289.119 234.877 289.982 233.643 291.274 233.415C298.498 232.137 306.199 233.3 313.048 237.255C319.897 241.209 324.755 247.297 327.26 254.191C327.709 255.425 327.072 256.788 325.838 257.237C324.605 257.685 323.241 257.048 322.793 255.815C320.655 249.932 316.517 244.746 310.672 241.371C304.826 237.996 298.265 237.005 292.102 238.095C290.81 238.324 289.576 237.461 289.348 236.169Z" fill="#D3D3FF"/>
<rect opacity="0.5" x="287.628" y="244.093" width="19.9535" height="8.44186" rx="4" fill="#B3B3B3"/>
<rect opacity="0.5" x="282.256" y="257.14" width="30.6977" height="8.44186" rx="4" fill="#B3B3B3"/>
<rect opacity="0.5" x="454.163" y="165.814" width="64.4651" height="8.44186" rx="4" fill="#B3B3B3"/>
<rect x="454.163" y="324.675" width="64.4651" height="8.44186" rx="4" fill="#56BD5B"/>
<rect opacity="0.5" x="466.442" y="348.465" width="39.907" height="8.44186" rx="4" fill="#B3B3B3"/>
<defs>
<filter id="filter0_d" x="0" y="-0.000488281" width="467" height="318" filterUnits="userSpaceOnUse" color-interpolation-filters="sRGB">
<feFlood flood-opacity="0" result="BackgroundImageFix"/>
<feColorMatrix in="SourceAlpha" type="matrix" values="0 0 0 0 0 0 0 0 0 0 0 0 0 0 0 0 0 0 127 0"/>
<feOffset dy="8"/>
<feGaussianBlur stdDeviation="12"/>
<feColorMatrix type="matrix" values="0 0 0 0 0 0 0 0 0 0 0 0 0 0 0 0 0 0 0.25 0"/>
<feBlend mode="normal" in2="BackgroundImageFix" result="effect1_dropShadow"/>
<feBlend mode="normal" in="SourceGraphic" in2="effect1_dropShadow" result="shape"/>
</filter>
<filter id="filter1_d" x="213.377" y="109.918" width="357.247" height="315.805" filterUnits="userSpaceOnUse" color-interpolation-filters="sRGB">
<feFlood flood-opacity="0" result="BackgroundImageFix"/>
<feColorMatrix in="SourceAlpha" type="matrix" values="0 0 0 0 0 0 0 0 0 0 0 0 0 0 0 0 0 0 127 0"/>
<feOffset dy="4.54111"/>
<feGaussianBlur stdDeviation="6.81166"/>
<feColorMatrix type="matrix" values="0 0 0 0 0 0 0 0 0 0 0 0 0 0 0 0 0 0 0.25 0"/>
<feBlend mode="normal" in2="BackgroundImageFix" result="effect1_dropShadow"/>
<feBlend mode="normal" in="SourceGraphic" in2="effect1_dropShadow" result="shape"/>
</filter>
</defs>
</svg>
