<svg width="290" height="51" viewBox="0 0 290 51" fill="none" xmlns="http://www.w3.org/2000/svg">
<g clip-path="url(#clip0)">
<path d="M19.8392 42.9961C19.4123 42.9115 19.0138 42.8269 18.6153 42.7423C18.2737 42.6577 17.9322 42.5731 17.5906 42.4603C17.5052 42.4321 17.4198 42.404 17.3344 42.3758C16.8221 42.2066 16.3382 42.0092 15.8259 41.8118C15.3989 41.6426 14.9435 41.4171 14.5165 41.2197C14.3173 41.1351 14.1465 41.0505 13.9472 40.9377C13.8619 40.8813 13.7765 40.8531 13.6911 40.7967C13.3495 40.6276 13.0364 40.4584 12.6948 40.261C12.6664 40.2328 12.6379 40.2328 12.6094 40.2046C10.19 38.7666 7.82753 36.539 5.03808 33.9731C4.72498 33.6912 4.18416 32.958 4.04184 32.7607C3.87106 32.4787 3.78567 32.3095 3.75721 31.943C3.67181 30.9843 5.12347 31.2944 5.86353 31.4072C7.22979 31.6328 9.84846 32.5633 12.8941 33.663C12.8656 33.5502 4.89576 28.5312 1.36625 28.8695C0.626188 28.9541 0.170767 29.2361 0.0284484 29.8282C-0.142334 30.5331 0.142304 30.8997 0.34155 31.2098C0.483869 31.4636 1.167 32.2249 1.50857 32.5351C4.69651 35.4957 7.37211 38.0053 10.1616 39.6689C10.19 39.6971 10.2185 39.6971 10.247 39.7253C10.617 39.9508 11.0155 40.1482 11.3855 40.3456C11.4994 40.402 11.5847 40.4302 11.6701 40.4866C11.8979 40.5994 12.0971 40.7121 12.3248 40.7967C12.8372 41.0223 13.321 41.2479 13.8334 41.4735C14.4027 41.699 14.9719 41.9246 15.5412 42.122C15.6551 42.1502 15.7405 42.1784 15.8543 42.2066C16.2243 42.3194 16.6228 42.4321 17.0213 42.5449C17.4768 42.6577 17.9322 42.7423 18.4161 42.8269C19.0138 42.9397 19.5546 42.9961 20.1524 43.0525C20.067 43.0243 19.9531 43.0243 19.8392 42.9961Z" fill="#1A1AFF"/>
<path d="M45.6843 38.0334C45.6843 38.0616 45.7128 38.0616 45.7413 38.0898C45.7128 38.0616 45.6843 38.0616 45.6843 38.0334Z" fill="black"/>
<path d="M8.14062 40.543C9.90537 41.8964 10.2185 42.2066 11.8978 43.2499C13.1218 44.0112 15.285 45.0827 17.2206 45.6748C20.0954 46.5771 21.6325 46.7745 23.938 46.9437C27.0406 47.1692 29.7446 46.6335 34.7827 45.3928C40.2762 44.0394 41.3579 43.6728 46.6237 41.9528C50.1532 40.7968 52.4018 39.8945 54.3089 38.964C56.0736 38.0899 58.6069 36.0315 59.0908 32.7043C59.4608 30.082 58.9769 29.4899 59.9163 28.4466C61.1117 27.1495 62.7057 27.9391 63.7304 29.6591C63.7304 26.4446 61.311 24.5836 58.8916 25.9653C57.4968 26.7548 57.3545 28.221 57.0699 30.8715C56.7283 34.2551 54.3089 36.2289 52.5441 37.103C50.6371 38.0335 48.8438 38.8512 45.3143 40.0636C40.447 41.7555 38.91 42.2912 32.6195 43.6446C27.5529 44.7443 26.0443 45.0545 22.9418 44.9135C20.437 44.8007 18.5299 44.3777 15.6266 43.56C13.6911 43.0243 11.357 41.6709 10.3323 40.9941C7.31517 38.9922 6.85975 38.682 5.26578 37.4695C4.04183 36.5391 3.10253 35.5804 2.30554 34.7909C2.33401 34.8191 2.33401 34.8191 2.36247 34.8473C3.21638 35.8905 5.0096 38.1463 8.14062 40.543Z" fill="#1A1AFF"/>
<path d="M46.6237 27.8826C45.6275 30.5613 44.0335 35.4676 44.0335 35.4676C44.0335 35.4676 43.2934 34.7062 42.468 34.0295C39.3654 31.4072 37.5153 30.8997 34.6974 30.3921C33.1034 30.1102 30.7409 30.0256 28.4923 30.223C26.3005 30.4203 24.6212 30.5895 22.7141 29.941C23.8527 30.5895 24.8204 30.8997 26.699 31.238C28.9192 31.661 31.3671 31.661 33.9288 32.1403L34.7828 32.3095C37.6007 32.958 39.9347 34.2269 42.6957 36.2571C43.8627 37.103 44.7736 38.2308 44.7736 38.2308C44.7736 38.2308 45.3428 35.5239 46.1114 33.2964C46.7376 31.52 47.1645 30.223 47.9046 28.1646C48.7016 25.9653 50.324 23.7095 52.8003 22.3561C49.9824 22.7226 47.5061 25.5141 46.6237 27.8826Z" fill="#1A1AFF"/>
<path d="M29.3176 20.2131C31.5378 18.9161 33.8149 17.901 36.4051 17.5062C39.0522 17.0833 40.9593 16.9141 43.7488 17.3652C46.709 17.8446 49.2138 18.183 52.4587 21.0026C52.0317 20.4105 51.1494 19.4518 50.7793 19.1416C48.7015 17.5344 47.0506 16.8013 44.1473 16.1528C41.4147 15.5325 38.6822 15.5607 36.0351 15.9836C33.4449 16.3784 31.1678 17.3934 28.9476 18.6905C27.3821 19.621 25.3327 22.0177 24.5926 23.6813C23.8526 25.3167 23.4256 27.3469 23.141 28.9823C23.7103 26.4164 24.7065 25.0066 25.5319 23.8223C26.5566 22.3279 27.7237 21.1436 29.3176 20.2131Z" fill="#1A1AFF"/>
<path d="M23.7388 43.0525C23.2549 43.0525 22.2302 42.9679 21.5756 42.7423C19.27 41.9528 17.2491 40.0918 15.9113 37.4695L15.4843 36.5672C13.6626 32.3095 14.1181 27.798 16.6798 25.063L16.7367 25.0066C16.7937 24.9502 16.879 24.8656 16.9644 24.781C17.5906 24.1889 18.3307 23.6813 19.1562 23.2866C19.0708 23.4839 18.9854 23.7095 18.9569 23.9633C18.7861 25.0066 18.8715 26.219 19.2131 27.4033C19.64 28.8977 20.5224 29.8846 21.234 30.5613C22.8564 32.1121 24.8774 33.099 27.3537 33.5502L27.6668 33.6066C28.72 33.7757 29.8016 33.8885 30.8548 34.0013C32.1641 34.1423 33.5304 34.2551 34.8966 34.5089L35.7505 34.678C38.6823 35.3548 41.3579 36.8774 43.6066 38.8511C40.874 39.7534 37.9707 40.543 34.5835 41.4452C32.221 42.0656 30.0293 42.4885 28.0938 42.7141L27.6384 42.7705C26.2436 42.9115 24.9912 43.0243 23.8811 43.0525H23.7388Z" fill="#1A1AFF"/>
<path d="M59.347 37.1311C59.3185 36.5954 65.0682 32.6478 65.3528 28.7567C65.5236 26.3882 64.2143 24.9501 62.3926 24.076C60.5709 23.2019 57.9807 23.5685 56.6998 25.0347C55.7321 26.1344 55.6182 27.3187 55.5613 27.9954C55.419 29.6308 55.2197 32.5633 53.398 34.1705C52.231 35.2137 49.4416 36.6518 46.3105 37.8642C46.4529 37.4413 48.4169 31.0688 49.2708 28.8131C50.0108 26.8393 51.3486 24.8373 52.6864 23.7377C54.7358 22.0459 57.2122 21.0872 61.254 21.4255C64.072 21.6511 66.5768 23.3711 67.4592 25.7678C68.3415 28.1646 68.2561 31.1816 66.036 33.0426C63.3888 35.2983 61.0548 35.3829 59.347 37.1311Z" fill="#1A1AFF"/>
<path d="M11.4709 30.9279C11.4709 30.8433 11.4709 30.7869 11.4709 30.7023C11.4709 17.8164 22.031 7.35541 35.0389 7.35541C44.5458 7.35541 52.7149 12.9102 56.4437 20.9462C57.4968 20.6361 58.6639 20.4387 59.9163 20.4105C55.8459 10.7672 46.2252 4 35.0389 4C20.6647 4 8.90915 15.1377 8.14062 29.2079C8.56758 29.4052 8.99454 29.6026 9.4215 29.8282C10.2469 30.2511 10.9016 30.5895 11.4709 30.9279Z" fill="#1A1AFF"/>
</g>
<path d="M117.112 38L110.92 17.84H110.776C110.8 18.32 110.836 19.04 110.884 20C110.932 20.96 110.98 21.992 111.028 23.096C111.076 24.176 111.1 25.16 111.1 26.048V38H106.24V12.296H113.656L119.74 31.952H119.848L126.292 12.296H133.708V38H128.632V25.832C128.632 25.016 128.644 24.08 128.668 23.024C128.716 21.968 128.752 20.972 128.776 20.036C128.824 19.076 128.86 18.356 128.884 17.876H128.74L122.116 38H117.112ZM147.833 17.948C150.473 17.948 152.489 18.524 153.881 19.676C155.297 20.804 156.005 22.544 156.005 24.896V38H152.261L151.217 35.336H151.073C150.233 36.392 149.345 37.16 148.409 37.64C147.473 38.12 146.189 38.36 144.557 38.36C142.805 38.36 141.353 37.856 140.201 36.848C139.049 35.816 138.473 34.244 138.473 32.132C138.473 30.044 139.205 28.508 140.669 27.524C142.133 26.516 144.329 25.964 147.257 25.868L150.677 25.76V24.896C150.677 23.864 150.401 23.108 149.849 22.628C149.321 22.148 148.577 21.908 147.617 21.908C146.657 21.908 145.721 22.052 144.809 22.34C143.897 22.604 142.985 22.94 142.073 23.348L140.309 19.712C141.365 19.16 142.529 18.728 143.801 18.416C145.097 18.104 146.441 17.948 147.833 17.948ZM150.677 28.892L148.589 28.964C146.861 29.012 145.661 29.324 144.989 29.9C144.317 30.476 143.981 31.232 143.981 32.168C143.981 32.984 144.221 33.572 144.701 33.932C145.181 34.268 145.805 34.436 146.573 34.436C147.725 34.436 148.697 34.1 149.489 33.428C150.281 32.732 150.677 31.76 150.677 30.512V28.892ZM172.476 17.984C172.74 17.984 173.052 17.996 173.412 18.02C173.772 18.044 174.06 18.08 174.276 18.128L173.88 23.168C173.712 23.12 173.46 23.084 173.124 23.06C172.812 23.012 172.536 22.988 172.296 22.988C171.384 22.988 170.508 23.156 169.668 23.492C168.828 23.804 168.144 24.32 167.616 25.04C167.112 25.76 166.86 26.744 166.86 27.992V38H161.496V18.344H165.564L166.356 21.656H166.608C167.184 20.648 167.976 19.784 168.984 19.064C169.992 18.344 171.156 17.984 172.476 17.984ZM183.207 10.64V22.88C183.207 23.624 183.171 24.368 183.099 25.112C183.051 25.832 182.991 26.564 182.919 27.308H182.991C183.351 26.804 183.723 26.3 184.107 25.796C184.491 25.268 184.899 24.776 185.331 24.32L190.839 18.344H196.887L189.075 26.876L197.355 38H191.163L185.511 30.044L183.207 31.88V38H177.843V10.64H183.207ZM208.267 17.984C210.979 17.984 213.127 18.764 214.711 20.324C216.295 21.86 217.087 24.056 217.087 26.912V29.504H204.415C204.463 31.016 204.907 32.204 205.747 33.068C206.611 33.932 207.799 34.364 209.311 34.364C210.583 34.364 211.735 34.244 212.767 34.004C213.799 33.74 214.867 33.344 215.971 32.816V36.956C215.011 37.436 213.991 37.784 212.911 38C211.855 38.24 210.571 38.36 209.059 38.36C207.091 38.36 205.351 38 203.839 37.28C202.327 36.536 201.139 35.42 200.275 33.932C199.411 32.444 198.979 30.572 198.979 28.316C198.979 26.012 199.363 24.104 200.131 22.592C200.923 21.056 202.015 19.904 203.407 19.136C204.799 18.368 206.419 17.984 208.267 17.984ZM208.303 21.8C207.271 21.8 206.407 22.136 205.711 22.808C205.039 23.48 204.643 24.524 204.523 25.94H212.047C212.023 24.74 211.711 23.756 211.111 22.988C210.511 22.196 209.575 21.8 208.303 21.8ZM229.717 34.076C230.317 34.076 230.893 34.016 231.445 33.896C231.997 33.776 232.549 33.632 233.101 33.464V37.46C232.525 37.7 231.805 37.904 230.941 38.072C230.101 38.264 229.177 38.36 228.169 38.36C226.993 38.36 225.937 38.168 225.001 37.784C224.089 37.4 223.357 36.74 222.805 35.804C222.277 34.844 222.013 33.524 222.013 31.844V22.376H219.457V20.108L222.409 18.308L223.957 14.168H227.377V18.344H232.885V22.376H227.377V31.844C227.377 32.588 227.593 33.152 228.025 33.536C228.457 33.896 229.021 34.076 229.717 34.076ZM245.146 17.984C247.858 17.984 250.006 18.764 251.59 20.324C253.174 21.86 253.966 24.056 253.966 26.912V29.504H241.294C241.342 31.016 241.786 32.204 242.626 33.068C243.49 33.932 244.678 34.364 246.19 34.364C247.462 34.364 248.614 34.244 249.646 34.004C250.678 33.74 251.746 33.344 252.85 32.816V36.956C251.89 37.436 250.87 37.784 249.79 38C248.734 38.24 247.45 38.36 245.938 38.36C243.97 38.36 242.23 38 240.718 37.28C239.206 36.536 238.018 35.42 237.154 33.932C236.29 32.444 235.858 30.572 235.858 28.316C235.858 26.012 236.242 24.104 237.01 22.592C237.802 21.056 238.894 19.904 240.286 19.136C241.678 18.368 243.298 17.984 245.146 17.984ZM245.182 21.8C244.15 21.8 243.286 22.136 242.59 22.808C241.918 23.48 241.522 24.524 241.402 25.94H248.926C248.902 24.74 248.59 23.756 247.99 22.988C247.39 22.196 246.454 21.8 245.182 21.8ZM269.296 17.984C269.56 17.984 269.872 17.996 270.232 18.02C270.592 18.044 270.88 18.08 271.096 18.128L270.7 23.168C270.532 23.12 270.28 23.084 269.944 23.06C269.632 23.012 269.356 22.988 269.116 22.988C268.204 22.988 267.328 23.156 266.488 23.492C265.648 23.804 264.964 24.32 264.436 25.04C263.932 25.76 263.68 26.744 263.68 27.992V38H258.316V18.344H262.384L263.176 21.656H263.428C264.004 20.648 264.796 19.784 265.804 19.064C266.812 18.344 267.976 17.984 269.296 17.984ZM288.379 32.168C288.379 34.16 287.671 35.696 286.255 36.776C284.863 37.832 282.775 38.36 279.991 38.36C278.623 38.36 277.447 38.264 276.463 38.072C275.479 37.904 274.495 37.616 273.511 37.208V32.78C274.567 33.26 275.707 33.656 276.931 33.968C278.155 34.28 279.235 34.436 280.171 34.436C281.227 34.436 281.971 34.28 282.403 33.968C282.859 33.656 283.087 33.248 283.087 32.744C283.087 32.408 282.991 32.108 282.799 31.844C282.631 31.58 282.247 31.28 281.647 30.944C281.047 30.608 280.111 30.176 278.839 29.648C277.615 29.12 276.607 28.604 275.815 28.1C275.023 27.572 274.435 26.948 274.051 26.228C273.667 25.484 273.475 24.56 273.475 23.456C273.475 21.632 274.183 20.264 275.599 19.352C277.015 18.44 278.899 17.984 281.251 17.984C282.475 17.984 283.639 18.104 284.743 18.344C285.847 18.584 286.987 18.98 288.163 19.532L286.543 23.384C285.583 22.976 284.671 22.64 283.807 22.376C282.943 22.088 282.067 21.944 281.179 21.944C279.595 21.944 278.803 22.376 278.803 23.24C278.803 23.552 278.899 23.84 279.091 24.104C279.307 24.344 279.703 24.608 280.279 24.896C280.879 25.184 281.755 25.568 282.907 26.048C284.035 26.504 285.007 26.984 285.823 27.488C286.639 27.968 287.263 28.58 287.695 29.324C288.151 30.044 288.379 30.992 288.379 32.168Z" fill="#1A1AFF"/>
<path d="M90.784 38.524C88 38.524 85.528 38.056 83.368 37.12V32.512C84.472 33.064 85.624 33.484 86.824 33.772C88.048 34.06 89.176 34.204 90.208 34.204C92.152 34.204 93.508 33.868 94.276 33.196C95.068 32.524 95.464 31.576 95.464 30.352C95.464 29.632 95.284 29.032 94.924 28.552C94.564 28.048 93.928 27.676 93.016 27.436C92.128 27.172 90.88 27.04 89.272 27.04H87.328V22.864H89.308C90.892 22.864 92.092 22.72 92.908 22.432C93.748 22.12 94.312 21.712 94.6 21.208C94.912 20.68 95.068 20.08 95.068 19.408C95.068 18.496 94.78 17.788 94.204 17.284C93.652 16.756 92.716 16.492 91.396 16.492C90.172 16.492 89.104 16.708 88.192 17.14C87.304 17.548 86.548 17.956 85.924 18.364L83.404 14.62C84.484 13.924 85.684 13.336 87.004 12.856C88.324 12.352 89.92 12.1 91.792 12.1C94.432 12.1 96.52 12.64 98.056 13.72C99.616 14.776 100.396 16.276 100.396 18.22C100.396 19.996 99.856 21.412 98.776 22.468C97.72 23.524 96.412 24.244 94.852 24.628V24.736C96.916 24.976 98.476 25.6 99.532 26.608C100.612 27.616 101.152 28.972 101.152 30.676C101.152 32.164 100.78 33.508 100.036 34.708C99.316 35.884 98.188 36.82 96.652 37.516C95.14 38.188 93.184 38.524 90.784 38.524Z" fill="#1A1AFF"/>
<defs>
<clipPath id="clip0">
<rect width="68" height="43" fill="white" transform="translate(0 4)"/>
</clipPath>
</defs>
</svg>
